DWD Dataset (Precipitation and Potential Evaporation) Averaged for Berlin — dwd_berlin_monthly • kwb.impetus
…
dwd_berlin_monthly <- dplyr::bind_rows(dwd_berlin_monthly_list, .id = "parameter")

dwd_berlin_monthly <- tibble::tibble(parameter_name = names(dwd_monthly_vars), 
                                    parameter = as.character(dwd_monthly_vars)) %>%  
 dplyr::left_join(dwd_berlin_monthly)

usethis::use_data(dwd_berlin_monthly, overwrite = TRUE)

} 

# Dataset

dwd_berlin_monthly
#> # A tibble: 3,852 × 11
#>    parameter_name parameter     file   date        year month  mean     sd   min
#>    <chr>          <chr>         <chr>  <date>     <int> <int> <dbl>  <dbl> <dbl>
#>  1 drought index  drought_index grids… 1970-01-01  1970     1  7.32 0.955      5
#>  2 drought index  drought_index grids… 1971-01-01  1971     1  2.00 0.115      1
#>  3 drought index  drought_index grids… 1972-01-01  1972     1  1.99 0.0938     1
#>  4 drought index  drought_index grids… 1973-01-01  1973     1  2.48 0.500      2
#>  5 drought index  drought_index grids… 1974-01-01  1974     1  2.02 0.151      2
#>  6 drought index  drought_index grids… 1975-01-01  1975     1  2.87 0.332      2
#>  7 drought index  drought_index grids… 1976-01-01  1976     1  9.05 0.500      8
#>  8 drought index  drought_index grids… 1977-01-01  1977     1  2.23 0.421      2
#>  9 drought index  drought_index grids… 1978-01-01  1978     1  1.76 0.428      1
#> 10 drought index  drought_index grids… 1979-01-01  1979     1  5.10 0.528      4
#> # ℹ 3,842 more rows
#> # ℹ 2 more variables: max <dbl>, n_values <dbl>
…
